Spis testów:
1. CREATION OF ADDRESS BOOK
2. ADDING A SINGLE ELEMENT
3. ADDING MANY ELEMENTS
4. DELETING ONE ELEMENT (optimistic)
5. DELETING ONE ELEMENT (pessimistic)
6. SEARCHING ELEMENT (optimistic)
7. SEARCHING ELEMENT (pessimistic)
8. REBUILDING BOOKS

wyciąłem te wyniki, które były równe zero- to znacznie poprawiło czytelnośc dokumentu.
czas mierzony jest w TICKACH procesora. sysconf(_SC_CLK_TCK) zwraca wartość 100, czyli każdy tick to jedna setna sekundy
Wnioski przedstawiają sięnastępująco:
-co zaskakujące, wersja na łańcuchu odsyłaczowym jest szybsza (wyjątek- wyszukiwanie i usuwanie pesymistyczne, gdzie podmiotem był ostatni element)
-większość testów była mało interesująca- no bo ileż czasu może zająć inicjalizacja struktury (test 1.) czy dodanie elementu na początek listy (test 2.)?
-zalecana ilość, czyli 1000 kontaktów jest zdecydowanie za mała- nie dawała żadnych wyników w żadnym teście
-obie implementacje są bardzo szybkie, dopiero dodawanie dziesiątek tysięcy danych daje jakiekolwiek sensowne wyniki przy pomiarze czasu


poniżej przedstawiam  w przystępniejszej formie część testów wersji na drzewie (format: rzeczywisty, uzytkownika)
wersja listy daje wyniki raczej nieprzekraczające 5 ticków (raz było 7 i raz 6, poza tym <5)

wersja testu	dodawanie 55k el.	przebudowa
stat			59, 58				55, 55
shared			62, 61				54, 53
shared_dyn		57, 55				51, 51

stat-O			60, 58				58, 57
stat_O1			59, 57				57, 57
stat_O2			57, 56				51, 51
stat-O3			60, 59				52, 52
stat-O0			58, 56				56, 55
stat-Os			60, 59				53, 53

Widać tu nieznaczną różnicę pomiędzy różnymi flagami optymalizacji. najlepsza okazuje sie być -O2 
Zakakujące jest natomiast to, że najlepsze wyniki osiągnął program w wersji z biblioteka ładowaną dynamicznie. 
Spodziewałem się, że najszybszy będzie ten statyczny.

test_stat:

-------------------------------------------------------------
ADDING MANY ELEMENTS: 
Tree's version time: 
Real, 	user, 	system: 
59, 	58, 	1,
 
List's version time: 
Real, 	user, 	system: 
2, 	1, 	0,
 
added 55000 elements
 
-------------------------------------------------------------
DELETING ONE ELEMENT (pessimistic): 
Tree's version time: 
Times equal 0 --> times are too short to be properly measured! 
 
List's version time: 
Real, 	user, 	system: 
0, 	0, 	1,
 
-------------------------------------------------------------
REBUILDING BOOKS: 
Tree's version time: 
Real, 	user, 	system: 
55, 	55, 	0,
 
List's version time: 
Real, 	user, 	system: 
4, 	4, 	0,
 
Finished


test_shared:

-------------------------------------------------------------
ADDING MANY ELEMENTS: 
Tree's version time: 
Real, 	user, 	system: 
62, 	61, 	1,
 
List's version time: 
Real, 	user, 	system: 
2, 	1, 	0,
 
added 55000 elements
 
-------------------------------------------------------------
REBUILDING BOOKS: 
Tree's version time: 
Real, 	user, 	system: 
54, 	53, 	0,
 
List's version time: 
Real, 	user, 	system: 
4, 	4, 	0,
 
Finished


test_shared_dyn:

-------------------------------------------------------------
ADDING MANY ELEMENTS: 
Tree's version time: 
Real, 	user, 	system: 
57, 	55, 	1,
 
List's version time: 
Real, 	user, 	system: 
2, 	1, 	0,
 
added 55000 elements

-------------------------------------------------------------
REBUILDING BOOKS: 
Tree's version time: 
Real, 	user, 	system: 
51, 	51, 	0,
 
List's version time: 
Real, 	user, 	system: 
4, 	4, 	0,
 
Finished

test_stat-O:
 
-------------------------------------------------------------
ADDING MANY ELEMENTS: 
Tree's version time: 
Real, 	user, 	system: 
60, 	58, 	1,
 
List's version time: 
Real, 	user, 	system: 
2, 	2, 	0,
 
added 55000 elements
 
-------------------------------------------------------------
REBUILDING BOOKS: 
Tree's version time: 
Real, 	user, 	system: 
58, 	57, 	0,
 
List's version time: 
Real, 	user, 	system: 
4, 	4, 	0,
 
Finished


test_stat-O1:
 
-------------------------------------------------------------
ADDING MANY ELEMENTS: 
Tree's version time: 
Real, 	user, 	system: 
59, 	57, 	1,
 
List's version time: 
Real, 	user, 	system: 
1, 	2, 	0,
 
added 55000 elements
 
-------------------------------------------------------------
REBUILDING BOOKS: 
Tree's version time: 
Real, 	user, 	system: 
57, 	57, 	0,
 
List's version time: 
Real, 	user, 	system: 
4, 	4, 	0,
 
Finished


test_stat-O2:
 
-------------------------------------------------------------
ADDING MANY ELEMENTS: 
Tree's version time: 
Real, 	user, 	system: 
57, 	56, 	0,
 
List's version time: 
Real, 	user, 	system: 
1, 	1, 	1,
 
added 55000 elements

-------------------------------------------------------------
SEARCHING ELEMENT (pessimistic): 
Tree's version time: 
Times equal 0 --> times are too short to be properly measured! 
 
List's version time: 
Real, 	user, 	system: 
1, 	0, 	0,
 
-------------------------------------------------------------
REBUILDING BOOKS: 
Tree's version time: 
Real, 	user, 	system: 
51, 	51, 	0,
 
List's version time: 
Real, 	user, 	system: 
4, 	4, 	0,
 
Finished


test_stat-O3:

-------------------------------------------------------------
ADDING MANY ELEMENTS: 
Tree's version time: 
Real, 	user, 	system: 
60, 	59, 	0,
 
List's version time: 
Real, 	user, 	system: 
2, 	1, 	1,
 
added 55000 elements

-------------------------------------------------------------
SEARCHING ELEMENT (pessimistic): 
Tree's version time: 
Times equal 0 --> times are too short to be properly measured! 
 
List's version time: 
Real, 	user, 	system: 
0, 	1, 	0,
 
-------------------------------------------------------------
REBUILDING BOOKS: 
Tree's version time: 
Real, 	user, 	system: 
52, 	52, 	0,
 
List's version time: 
Real, 	user, 	system: 
5, 	4, 	0,
 
Finished


test_stat-O0:
-------------------------------------------------------------
ADDING MANY ELEMENTS: 
Tree's version time: 
Real, 	user, 	system: 
58, 	56, 	1,
 
List's version time: 
Real, 	user, 	system: 
1, 	1, 	0,
 
added 55000 elements
 
-------------------------------------------------------------
DELETING ONE ELEMENT (pessimistic): 
Tree's version time: 
Times equal 0 --> times are too short to be properly measured! 
 
List's version time: 
Real, 	user, 	system: 
0, 	1, 	0,
 
-------------------------------------------------------------
REBUILDING BOOKS: 
Tree's version time: 
Real, 	user, 	system: 
56, 	55, 	0,
 
List's version time: 
Real, 	user, 	system: 
4, 	4, 	0,
 
Finished


test_stat-Os:
 
-------------------------------------------------------------
ADDING MANY ELEMENTS: 
Tree's version time: 
Real, 	user, 	system: 
60, 	59, 	0,
 
List's version time: 
Real, 	user, 	system: 
2, 	1, 	1,
 
added 55000 elements

-------------------------------------------------------------
REBUILDING BOOKS: 
Tree's version time: 
Real, 	user, 	system: 
53, 	53, 	0,
 
List's version time: 
Real, 	user, 	system: 
4, 	4, 	0,
 
Finished


test_shared-O:

-------------------------------------------------------------
ADDING MANY ELEMENTS: 
Tree's version time: 
Real, 	user, 	system: 
71, 	70, 	0,
 
List's version time: 
Real, 	user, 	system: 
1, 	1, 	1,
 
added 55000 elements

-------------------------------------------------------------
SEARCHING ELEMENT (pessimistic): 
Tree's version time: 
Times equal 0 --> times are too short to be properly measured! 
 
List's version time: 
Real, 	user, 	system: 
1, 	0, 	0,
 
-------------------------------------------------------------
REBUILDING BOOKS: 
Tree's version time: 
Real, 	user, 	system: 
61, 	61, 	0,
 
List's version time: 
Real, 	user, 	system: 
4, 	5, 	0,
 
Finished


test_shared-O1:

-------------------------------------------------------------
ADDING MANY ELEMENTS: 
Tree's version time: 
Real, 	user, 	system: 
59, 	59, 	0,
 
List's version time: 
Real, 	user, 	system: 
2, 	1, 	0,
 
added 55000 elements

-------------------------------------------------------------
REBUILDING BOOKS: 
Tree's version time: 
Real, 	user, 	system: 
55, 	55, 	0,
 
List's version time: 
Real, 	user, 	system: 
4, 	4, 	0,
 
Finished


test_shared-O2:

-------------------------------------------------------------
ADDING MANY ELEMENTS: 
Tree's version time: 
Real, 	user, 	system: 
71, 	70, 	0,
 
List's version time: 
Real, 	user, 	system: 
1, 	1, 	1,
 
added 55000 elements

-------------------------------------------------------------
REBUILDING BOOKS: 
Tree's version time: 
Real, 	user, 	system: 
68, 	68, 	0,
 
List's version time: 
Real, 	user, 	system: 
5, 	4, 	0,
 
Finished


test_shared-O3:

-------------------------------------------------------------
ADDING MANY ELEMENTS: 
Tree's version time: 
Real, 	user, 	system: 
70, 	67, 	1,
 
List's version time: 
Real, 	user, 	system: 
1, 	1, 	1,
 
added 55000 elements

-------------------------------------------------------------
SEARCHING ELEMENT (pessimistic): 
Tree's version time: 
Times equal 0 --> times are too short to be properly measured! 
 
List's version time: 
Real, 	user, 	system: 
0, 	1, 	0,
 
-------------------------------------------------------------
REBUILDING BOOKS: 
Tree's version time: 
Real, 	user, 	system: 
68, 	67, 	0,
 
List's version time: 
Real, 	user, 	system: 
6, 	6, 	0,
 
Finished


test_shared-O0:

-------------------------------------------------------------
ADDING MANY ELEMENTS: 
Tree's version time: 
Real, 	user, 	system: 
72, 	71, 	0,
 
List's version time: 
Real, 	user, 	system: 
2, 	1, 	1,
 
added 55000 elements

-------------------------------------------------------------
REBUILDING BOOKS: 
Tree's version time: 
Real, 	user, 	system: 
63, 	63, 	0,
 
List's version time: 
Real, 	user, 	system: 
7, 	7, 	0,
 
Finished


test_shared:

-------------------------------------------------------------
ADDING MANY ELEMENTS: 
Tree's version time: 
Real, 	user, 	system: 
73, 	71, 	1,
 
List's version time: 
Real, 	user, 	system: 
2, 	2, 	0,
 
added 55000 elements

-------------------------------------------------------------
REBUILDING BOOKS: 
Tree's version time: 
Real, 	user, 	system: 
55, 	55, 	0,
 
List's version time: 
Real, 	user, 	system: 
5, 	4, 	0,
 
Finished


test_shared_dyn-O:

-------------------------------------------------------------
ADDING MANY ELEMENTS: 
Tree's version time: 
Real, 	user, 	system: 
64, 	62, 	0,
 
List's version time: 
Real, 	user, 	system: 
1, 	2, 	0,
 
added 55000 elements

-------------------------------------------------------------
SEARCHING ELEMENT (pessimistic): 
Tree's version time: 
Times equal 0 --> times are too short to be properly measured! 
 
List's version time: 
Real, 	user, 	system: 
1, 	0, 	0,
 
-------------------------------------------------------------
REBUILDING BOOKS: 
Tree's version time: 
Real, 	user, 	system: 
66, 	66, 	0,
 
List's version time: 
Real, 	user, 	system: 
5, 	5, 	0,
 
Finished


test_shared_dyn-O1:

-------------------------------------------------------------
ADDING MANY ELEMENTS: 
Tree's version time: 
Real, 	user, 	system: 
65, 	64, 	0,
 
List's version time: 
Real, 	user, 	system: 
2, 	1, 	1,
 
added 55000 elements

-------------------------------------------------------------
REBUILDING BOOKS: 
Tree's version time: 
Real, 	user, 	system: 
61, 	61, 	0,
 
List's version time: 
Real, 	user, 	system: 
4, 	4, 	0,
 
Finished


test_shared_dyn-O2:

-------------------------------------------------------------
ADDING MANY ELEMENTS: 
Tree's version time: 
Real, 	user, 	system: 
58, 	57, 	0,
 
List's version time: 
Real, 	user, 	system: 
2, 	1, 	1,
 
added 55000 elements

-------------------------------------------------------------
REBUILDING BOOKS: 
Tree's version time: 
Real, 	user, 	system: 
55, 	55, 	0,
 
List's version time: 
Real, 	user, 	system: 
4, 	4, 	0,
 
Finished


test_shared_dyn-O3:

-------------------------------------------------------------
ADDING MANY ELEMENTS: 
Tree's version time: 
Real, 	user, 	system: 
59, 	58, 	1,
 
List's version time: 
Real, 	user, 	system: 
2, 	1, 	0,
 
added 55000 elements

-------------------------------------------------------------
REBUILDING BOOKS: 
Tree's version time: 
Real, 	user, 	system: 
55, 	55, 	0,
 
List's version time: 
Real, 	user, 	system: 
4, 	4, 	0,
 
Finished


test_shared_dyn-O0:

-------------------------------------------------------------
ADDING MANY ELEMENTS: 
Tree's version time: 
Real, 	user, 	system: 
66, 	64, 	1,
 
List's version time: 
Real, 	user, 	system: 
1, 	1, 	0,
 
added 55000 elements

-------------------------------------------------------------
REBUILDING BOOKS: 
Tree's version time: 
Real, 	user, 	system: 
55, 	56, 	0,
 
List's version time: 
Real, 	user, 	system: 
4, 	4, 	0,
 
Finished


test_shared_dyn-Os:

-------------------------------------------------------------
ADDING MANY ELEMENTS: 
Tree's version time: 
Real, 	user, 	system: 
76, 	76, 	0,
 
List's version time: 
Real, 	user, 	system: 
2, 	1, 	0,
 
added 55000 elements

-------------------------------------------------------------
REBUILDING BOOKS: 
Tree's version time: 
Real, 	user, 	system: 
65, 	66, 	0,
 
List's version time: 
Real, 	user, 	system: 
5, 	4, 	0,
 
Finished
test_stat:
CREATION OF ADDRESS BOOK:
Tree's version time: 
Times equal 0 --> times are too short to be properly measured! 
 
List's version time: 
Times equal 0 --> times are too short to be properly measured! 
 
-------------------------------------------------------------
ADDING A SINGLE ELEMENT: 
Tree's version time: 
Times equal 0 --> times are too short to be properly measured! 
 
List's version time: 
Times equal 0 --> times are too short to be properly measured! 
 
-------------------------------------------------------------
ADDING MANY ELEMENTS: 
Tree's version time: 
Real, 	user, 	system: 
45, 	43, 	1,
 
List's version time: 
Real, 	user, 	system: 
2, 	1, 	1,
 
added 55000 elements

-------------------------------------------------------------
DELETING ONE ELEMENT (optimistic): 
Tree's version time: 
Times equal 0 --> times are too short to be properly measured! 
 
List's version time: 
Times equal 0 --> times are too short to be properly measured! 
 
-------------------------------------------------------------
DELETING ONE ELEMENT (pessimistic): 
Tree's version time: 
Times equal 0 --> times are too short to be properly measured! 
 
List's version time: 
Times equal 0 --> times are too short to be properly measured! 
 
-------------------------------------------------------------
SEARCHING ELEMENT (optimistic): 
Tree's version time: 
Times equal 0 --> times are too short to be properly measured! 
 
List's version time: 
Times equal 0 --> times are too short to be properly measured! 
 
-------------------------------------------------------------
SEARCHING ELEMENT (pessimistic): 
Tree's version time: 
Times equal 0 --> times are too short to be properly measured! 
 
List's version time: 
Real, 	user, 	system: 
0, 	1, 	0,
 
-------------------------------------------------------------
REBUILDING BOOKS: 
Tree's version time: 
Real, 	user, 	system: 
35, 	35, 	0,
 
List's version time: 
Real, 	user, 	system: 
4, 	3, 	0,
 
Finished
test_shared:
CREATION OF ADDRESS BOOK:
Tree's version time: 
Times equal 0 --> times are too short to be properly measured! 
 
List's version time: 
Times equal 0 --> times are too short to be properly measured! 
 
-------------------------------------------------------------
ADDING A SINGLE ELEMENT: 
Tree's version time: 
Times equal 0 --> times are too short to be properly measured! 
 
List's version time: 
Times equal 0 --> times are too short to be properly measured! 
 
-------------------------------------------------------------
ADDING MANY ELEMENTS: 
Tree's version time: 
Real, 	user, 	system: 
47, 	46, 	0,
 
List's version time: 
Real, 	user, 	system: 
1, 	1, 	0,
 
added 55000 elements

-------------------------------------------------------------
DELETING ONE ELEMENT (optimistic): 
Tree's version time: 
Times equal 0 --> times are too short to be properly measured! 
 
List's version time: 
Times equal 0 --> times are too short to be properly measured! 
 
-------------------------------------------------------------
DELETING ONE ELEMENT (pessimistic): 
Tree's version time: 
Times equal 0 --> times are too short to be properly measured! 
 
List's version time: 
Times equal 0 --> times are too short to be properly measured! 
 
-------------------------------------------------------------
SEARCHING ELEMENT (optimistic): 
Tree's version time: 
Times equal 0 --> times are too short to be properly measured! 
 
List's version time: 
Times equal 0 --> times are too short to be properly measured! 
 
-------------------------------------------------------------
SEARCHING ELEMENT (pessimistic): 
Tree's version time: 
Times equal 0 --> times are too short to be properly measured! 
 
List's version time: 
Times equal 0 --> times are too short to be properly measured! 
 
-------------------------------------------------------------
REBUILDING BOOKS: 
Tree's version time: 
Real, 	user, 	system: 
37, 	37, 	0,
 
List's version time: 
Real, 	user, 	system: 
4, 	3, 	0,
 
Finished
test_shared_dyn:
CREATION OF ADDRESS BOOK:
Tree's version time: 
Times equal 0 --> times are too short to be properly measured! 
 
List's version time: 
Times equal 0 --> times are too short to be properly measured! 
 
-------------------------------------------------------------
ADDING A SINGLE ELEMENT: 
Tree's version time: 
Times equal 0 --> times are too short to be properly measured! 
 
List's version time: 
Times equal 0 --> times are too short to be properly measured! 
 
-------------------------------------------------------------
ADDING MANY ELEMENTS: 
Tree's version time: 
Real, 	user, 	system: 
48, 	47, 	1,
 
List's version time: 
Real, 	user, 	system: 
2, 	0, 	1,
 
added 55000 elements

-------------------------------------------------------------
DELETING ONE ELEMENT (optimistic): 
Tree's version time: 
Times equal 0 --> times are too short to be properly measured! 
 
List's version time: 
Times equal 0 --> times are too short to be properly measured! 
 
-------------------------------------------------------------
DELETING ONE ELEMENT (pessimistic): 
Tree's version time: 
Times equal 0 --> times are too short to be properly measured! 
 
List's version time: 
Times equal 0 --> times are too short to be properly measured! 
 
-------------------------------------------------------------
SEARCHING ELEMENT (optimistic): 
Tree's version time: 
Times equal 0 --> times are too short to be properly measured! 
 
List's version time: 
Times equal 0 --> times are too short to be properly measured! 
 
-------------------------------------------------------------
SEARCHING ELEMENT (pessimistic): 
Tree's version time: 
Times equal 0 --> times are too short to be properly measured! 
 
List's version time: 
Real, 	user, 	system: 
0, 	1, 	0,
 
-------------------------------------------------------------
REBUILDING BOOKS: 
Tree's version time: 
Real, 	user, 	system: 
36, 	36, 	0,
 
List's version time: 
Real, 	user, 	system: 
4, 	3, 	0,
 
Finished
test_stat-O:
CREATION OF ADDRESS BOOK:
Tree's version time: 
Times equal 0 --> times are too short to be properly measured! 
 
List's version time: 
Times equal 0 --> times are too short to be properly measured! 
 
-------------------------------------------------------------
ADDING A SINGLE ELEMENT: 
Tree's version time: 
Times equal 0 --> times are too short to be properly measured! 
 
List's version time: 
Times equal 0 --> times are too short to be properly measured! 
 
-------------------------------------------------------------
ADDING MANY ELEMENTS: 
Tree's version time: 
Real, 	user, 	system: 
45, 	44, 	0,
 
List's version time: 
Real, 	user, 	system: 
1, 	0, 	1,
 
added 55000 elements

-------------------------------------------------------------
DELETING ONE ELEMENT (optimistic): 
Tree's version time: 
Times equal 0 --> times are too short to be properly measured! 
 
List's version time: 
Times equal 0 --> times are too short to be properly measured! 
 
-------------------------------------------------------------
DELETING ONE ELEMENT (pessimistic): 
Tree's version time: 
Times equal 0 --> times are too short to be properly measured! 
 
List's version time: 
Times equal 0 --> times are too short to be properly measured! 
 
-------------------------------------------------------------
SEARCHING ELEMENT (optimistic): 
Tree's version time: 
Times equal 0 --> times are too short to be properly measured! 
 
List's version time: 
Times equal 0 --> times are too short to be properly measured! 
 
-------------------------------------------------------------
SEARCHING ELEMENT (pessimistic): 
Tree's version time: 
Times equal 0 --> times are too short to be properly measured! 
 
List's version time: 
Real, 	user, 	system: 
0, 	1, 	0,
 
-------------------------------------------------------------
REBUILDING BOOKS: 
Tree's version time: 
Real, 	user, 	system: 
34, 	34, 	0,
 
List's version time: 
Real, 	user, 	system: 
4, 	3, 	0,
 
Finished
test_stat-O1:
CREATION OF ADDRESS BOOK:
Tree's version time: 
Times equal 0 --> times are too short to be properly measured! 
 
List's version time: 
Times equal 0 --> times are too short to be properly measured! 
 
-------------------------------------------------------------
ADDING A SINGLE ELEMENT: 
Tree's version time: 
Times equal 0 --> times are too short to be properly measured! 
 
List's version time: 
Times equal 0 --> times are too short to be properly measured! 
 
-------------------------------------------------------------
ADDING MANY ELEMENTS: 
Tree's version time: 
Real, 	user, 	system: 
47, 	46, 	0,
 
List's version time: 
Real, 	user, 	system: 
1, 	1, 	0,
 
added 55000 elements

-------------------------------------------------------------
DELETING ONE ELEMENT (optimistic): 
Tree's version time: 
Times equal 0 --> times are too short to be properly measured! 
 
List's version time: 
Times equal 0 --> times are too short to be properly measured! 
 
-------------------------------------------------------------
DELETING ONE ELEMENT (pessimistic): 
Tree's version time: 
Times equal 0 --> times are too short to be properly measured! 
 
List's version time: 
Times equal 0 --> times are too short to be properly measured! 
 
-------------------------------------------------------------
SEARCHING ELEMENT (optimistic): 
Tree's version time: 
Times equal 0 --> times are too short to be properly measured! 
 
List's version time: 
Times equal 0 --> times are too short to be properly measured! 
 
-------------------------------------------------------------
SEARCHING ELEMENT (pessimistic): 
Tree's version time: 
Times equal 0 --> times are too short to be properly measured! 
 
List's version time: 
Real, 	user, 	system: 
1, 	0, 	0,
 
-------------------------------------------------------------
REBUILDING BOOKS: 
Tree's version time: 
Real, 	user, 	system: 
36, 	36, 	0,
 
List's version time: 
Real, 	user, 	system: 
3, 	4, 	0,
 
Finished
test_stat-O2:
CREATION OF ADDRESS BOOK:
Tree's version time: 
Times equal 0 --> times are too short to be properly measured! 
 
List's version time: 
Times equal 0 --> times are too short to be properly measured! 
 
-------------------------------------------------------------
ADDING A SINGLE ELEMENT: 
Tree's version time: 
Times equal 0 --> times are too short to be properly measured! 
 
List's version time: 
Times equal 0 --> times are too short to be properly measured! 
 
-------------------------------------------------------------
ADDING MANY ELEMENTS: 
Tree's version time: 
Real, 	user, 	system: 
45, 	44, 	0,
 
List's version time: 
Real, 	user, 	system: 
1, 	0, 	0,
 
added 55000 elements

-------------------------------------------------------------
DELETING ONE ELEMENT (optimistic): 
Tree's version time: 
Times equal 0 --> times are too short to be properly measured! 
 
List's version time: 
Times equal 0 --> times are too short to be properly measured! 
 
-------------------------------------------------------------
DELETING ONE ELEMENT (pessimistic): 
Tree's version time: 
Times equal 0 --> times are too short to be properly measured! 
 
List's version time: 
Times equal 0 --> times are too short to be properly measured! 
 
-------------------------------------------------------------
SEARCHING ELEMENT (optimistic): 
Tree's version time: 
Times equal 0 --> times are too short to be properly measured! 
 
List's version time: 
Times equal 0 --> times are too short to be properly measured! 
 
-------------------------------------------------------------
SEARCHING ELEMENT (pessimistic): 
Tree's version time: 
Times equal 0 --> times are too short to be properly measured! 
 
List's version time: 
Real, 	user, 	system: 
0, 	1, 	0,
 
-------------------------------------------------------------
REBUILDING BOOKS: 
Tree's version time: 
Real, 	user, 	system: 
36, 	36, 	0,
 
List's version time: 
Real, 	user, 	system: 
4, 	3, 	0,
 
Finished
test_stat-O3:
CREATION OF ADDRESS BOOK:
Tree's version time: 
Times equal 0 --> times are too short to be properly measured! 
 
List's version time: 
Times equal 0 --> times are too short to be properly measured! 
 
-------------------------------------------------------------
ADDING A SINGLE ELEMENT: 
Tree's version time: 
Times equal 0 --> times are too short to be properly measured! 
 
List's version time: 
Times equal 0 --> times are too short to be properly measured! 
 
-------------------------------------------------------------
ADDING MANY ELEMENTS: 
Tree's version time: 
Real, 	user, 	system: 
46, 	45, 	0,
 
List's version time: 
Real, 	user, 	system: 
2, 	1, 	0,
 
added 55000 elements

-------------------------------------------------------------
DELETING ONE ELEMENT (optimistic): 
Tree's version time: 
Times equal 0 --> times are too short to be properly measured! 
 
List's version time: 
Times equal 0 --> times are too short to be properly measured! 
 
-------------------------------------------------------------
DELETING ONE ELEMENT (pessimistic): 
Tree's version time: 
Times equal 0 --> times are too short to be properly measured! 
 
List's version time: 
Times equal 0 --> times are too short to be properly measured! 
 
-------------------------------------------------------------
SEARCHING ELEMENT (optimistic): 
Tree's version time: 
Times equal 0 --> times are too short to be properly measured! 
 
List's version time: 
Times equal 0 --> times are too short to be properly measured! 
 
-------------------------------------------------------------
SEARCHING ELEMENT (pessimistic): 
Tree's version time: 
Times equal 0 --> times are too short to be properly measured! 
 
List's version time: 
Times equal 0 --> times are too short to be properly measured! 
 
-------------------------------------------------------------
REBUILDING BOOKS: 
Tree's version time: 
Real, 	user, 	system: 
36, 	37, 	0,
 
List's version time: 
Real, 	user, 	system: 
4, 	3, 	0,
 
Finished
test_stat-O0:
CREATION OF ADDRESS BOOK:
Tree's version time: 
Times equal 0 --> times are too short to be properly measured! 
 
List's version time: 
Times equal 0 --> times are too short to be properly measured! 
 
-------------------------------------------------------------
ADDING A SINGLE ELEMENT: 
Tree's version time: 
Times equal 0 --> times are too short to be properly measured! 
 
List's version time: 
Times equal 0 --> times are too short to be properly measured! 
 
-------------------------------------------------------------
ADDING MANY ELEMENTS: 
Tree's version time: 
Real, 	user, 	system: 
48, 	47, 	0,
 
List's version time: 
Real, 	user, 	system: 
2, 	1, 	0,
 
added 55000 elements

-------------------------------------------------------------
DELETING ONE ELEMENT (optimistic): 
Tree's version time: 
Times equal 0 --> times are too short to be properly measured! 
 
List's version time: 
Times equal 0 --> times are too short to be properly measured! 
 
-------------------------------------------------------------
DELETING ONE ELEMENT (pessimistic): 
Tree's version time: 
Times equal 0 --> times are too short to be properly measured! 
 
List's version time: 
Times equal 0 --> times are too short to be properly measured! 
 
-------------------------------------------------------------
SEARCHING ELEMENT (optimistic): 
Tree's version time: 
Times equal 0 --> times are too short to be properly measured! 
 
List's version time: 
Times equal 0 --> times are too short to be properly measured! 
 
-------------------------------------------------------------
SEARCHING ELEMENT (pessimistic): 
Tree's version time: 
Times equal 0 --> times are too short to be properly measured! 
 
List's version time: 
Times equal 0 --> times are too short to be properly measured! 
 
-------------------------------------------------------------
REBUILDING BOOKS: 
Tree's version time: 
Real, 	user, 	system: 
36, 	36, 	0,
 
List's version time: 
Real, 	user, 	system: 
3, 	4, 	0,
 
Finished
test_stat-Os:
CREATION OF ADDRESS BOOK:
Tree's version time: 
Times equal 0 --> times are too short to be properly measured! 
 
List's version time: 
Times equal 0 --> times are too short to be properly measured! 
 
-------------------------------------------------------------
ADDING A SINGLE ELEMENT: 
Tree's version time: 
Times equal 0 --> times are too short to be properly measured! 
 
List's version time: 
Times equal 0 --> times are too short to be properly measured! 
 
-------------------------------------------------------------
ADDING MANY ELEMENTS: 
Tree's version time: 
Real, 	user, 	system: 
45, 	45, 	0,
 
List's version time: 
Real, 	user, 	system: 
2, 	1, 	0,
 
added 55000 elements

-------------------------------------------------------------
DELETING ONE ELEMENT (optimistic): 
Tree's version time: 
Times equal 0 --> times are too short to be properly measured! 
 
List's version time: 
Times equal 0 --> times are too short to be properly measured! 
 
-------------------------------------------------------------
DELETING ONE ELEMENT (pessimistic): 
Tree's version time: 
Times equal 0 --> times are too short to be properly measured! 
 
List's version time: 
Times equal 0 --> times are too short to be properly measured! 
 
-------------------------------------------------------------
SEARCHING ELEMENT (optimistic): 
Tree's version time: 
Times equal 0 --> times are too short to be properly measured! 
 
List's version time: 
Times equal 0 --> times are too short to be properly measured! 
 
-------------------------------------------------------------
SEARCHING ELEMENT (pessimistic): 
Tree's version time: 
Times equal 0 --> times are too short to be properly measured! 
 
List's version time: 
Times equal 0 --> times are too short to be properly measured! 
 
-------------------------------------------------------------
REBUILDING BOOKS: 
Tree's version time: 
Real, 	user, 	system: 
34, 	34, 	0,
 
List's version time: 
Real, 	user, 	system: 
4, 	4, 	0,
 
Finished
test_shared-O:
CREATION OF ADDRESS BOOK:
Tree's version time: 
Times equal 0 --> times are too short to be properly measured! 
 
List's version time: 
Times equal 0 --> times are too short to be properly measured! 
 
-------------------------------------------------------------
ADDING A SINGLE ELEMENT: 
Tree's version time: 
Times equal 0 --> times are too short to be properly measured! 
 
List's version time: 
Times equal 0 --> times are too short to be properly measured! 
 
-------------------------------------------------------------
ADDING MANY ELEMENTS: 
Tree's version time: 
Real, 	user, 	system: 
48, 	47, 	0,
 
List's version time: 
Real, 	user, 	system: 
1, 	1, 	0,
 
added 55000 elements

-------------------------------------------------------------
DELETING ONE ELEMENT (optimistic): 
Tree's version time: 
Times equal 0 --> times are too short to be properly measured! 
 
List's version time: 
Times equal 0 --> times are too short to be properly measured! 
 
-------------------------------------------------------------
DELETING ONE ELEMENT (pessimistic): 
Tree's version time: 
Times equal 0 --> times are too short to be properly measured! 
 
List's version time: 
Times equal 0 --> times are too short to be properly measured! 
 
-------------------------------------------------------------
SEARCHING ELEMENT (optimistic): 
Tree's version time: 
Times equal 0 --> times are too short to be properly measured! 
 
List's version time: 
Times equal 0 --> times are too short to be properly measured! 
 
-------------------------------------------------------------
SEARCHING ELEMENT (pessimistic): 
Tree's version time: 
Times equal 0 --> times are too short to be properly measured! 
 
List's version time: 
Real, 	user, 	system: 
1, 	0, 	0,
 
-------------------------------------------------------------
REBUILDING BOOKS: 
Tree's version time: 
Real, 	user, 	system: 
36, 	36, 	0,
 
List's version time: 
Real, 	user, 	system: 
3, 	4, 	0,
 
Finished
test_shared-O1:
CREATION OF ADDRESS BOOK:
Tree's version time: 
Times equal 0 --> times are too short to be properly measured! 
 
List's version time: 
Times equal 0 --> times are too short to be properly measured! 
 
-------------------------------------------------------------
ADDING A SINGLE ELEMENT: 
Tree's version time: 
Times equal 0 --> times are too short to be properly measured! 
 
List's version time: 
Times equal 0 --> times are too short to be properly measured! 
 
-------------------------------------------------------------
ADDING MANY ELEMENTS: 
Tree's version time: 
Real, 	user, 	system: 
45, 	45, 	0,
 
List's version time: 
Real, 	user, 	system: 
2, 	1, 	0,
 
added 55000 elements

-------------------------------------------------------------
DELETING ONE ELEMENT (optimistic): 
Tree's version time: 
Times equal 0 --> times are too short to be properly measured! 
 
List's version time: 
Times equal 0 --> times are too short to be properly measured! 
 
-------------------------------------------------------------
DELETING ONE ELEMENT (pessimistic): 
Tree's version time: 
Times equal 0 --> times are too short to be properly measured! 
 
List's version time: 
Times equal 0 --> times are too short to be properly measured! 
 
-------------------------------------------------------------
SEARCHING ELEMENT (optimistic): 
Tree's version time: 
Times equal 0 --> times are too short to be properly measured! 
 
List's version time: 
Times equal 0 --> times are too short to be properly measured! 
 
-------------------------------------------------------------
SEARCHING ELEMENT (pessimistic): 
Tree's version time: 
Times equal 0 --> times are too short to be properly measured! 
 
List's version time: 
Times equal 0 --> times are too short to be properly measured! 
 
-------------------------------------------------------------
REBUILDING BOOKS: 
Tree's version time: 
Real, 	user, 	system: 
37, 	37, 	0,
 
List's version time: 
Real, 	user, 	system: 
3, 	3, 	0,
 
Finished
test_shared-O2:
CREATION OF ADDRESS BOOK:
Tree's version time: 
Times equal 0 --> times are too short to be properly measured! 
 
List's version time: 
Times equal 0 --> times are too short to be properly measured! 
 
-------------------------------------------------------------
ADDING A SINGLE ELEMENT: 
Tree's version time: 
Times equal 0 --> times are too short to be properly measured! 
 
List's version time: 
Times equal 0 --> times are too short to be properly measured! 
 
-------------------------------------------------------------
ADDING MANY ELEMENTS: 
Tree's version time: 
Real, 	user, 	system: 
46, 	45, 	0,
 
List's version time: 
Real, 	user, 	system: 
1, 	1, 	0,
 
added 55000 elements

-------------------------------------------------------------
DELETING ONE ELEMENT (optimistic): 
Tree's version time: 
Times equal 0 --> times are too short to be properly measured! 
 
List's version time: 
Times equal 0 --> times are too short to be properly measured! 
 
-------------------------------------------------------------
DELETING ONE ELEMENT (pessimistic): 
Tree's version time: 
Times equal 0 --> times are too short to be properly measured! 
 
List's version time: 
Times equal 0 --> times are too short to be properly measured! 
 
-------------------------------------------------------------
SEARCHING ELEMENT (optimistic): 
Tree's version time: 
Times equal 0 --> times are too short to be properly measured! 
 
List's version time: 
Times equal 0 --> times are too short to be properly measured! 
 
-------------------------------------------------------------
SEARCHING ELEMENT (pessimistic): 
Tree's version time: 
Times equal 0 --> times are too short to be properly measured! 
 
List's version time: 
Times equal 0 --> times are too short to be properly measured! 
 
-------------------------------------------------------------
REBUILDING BOOKS: 
Tree's version time: 
Real, 	user, 	system: 
38, 	37, 	0,
 
List's version time: 
Real, 	user, 	system: 
3, 	3, 	0,
 
Finished
test_shared-O3:
CREATION OF ADDRESS BOOK:
Tree's version time: 
Times equal 0 --> times are too short to be properly measured! 
 
List's version time: 
Times equal 0 --> times are too short to be properly measured! 
 
-------------------------------------------------------------
ADDING A SINGLE ELEMENT: 
Tree's version time: 
Times equal 0 --> times are too short to be properly measured! 
 
List's version time: 
Times equal 0 --> times are too short to be properly measured! 
 
-------------------------------------------------------------
ADDING MANY ELEMENTS: 
Tree's version time: 
Real, 	user, 	system: 
50, 	49, 	0,
 
List's version time: 
Real, 	user, 	system: 
1, 	1, 	0,
 
added 55000 elements

-------------------------------------------------------------
DELETING ONE ELEMENT (optimistic): 
Tree's version time: 
Times equal 0 --> times are too short to be properly measured! 
 
List's version time: 
Times equal 0 --> times are too short to be properly measured! 
 
-------------------------------------------------------------
DELETING ONE ELEMENT (pessimistic): 
Tree's version time: 
Times equal 0 --> times are too short to be properly measured! 
 
List's version time: 
Times equal 0 --> times are too short to be properly measured! 
 
-------------------------------------------------------------
SEARCHING ELEMENT (optimistic): 
Tree's version time: 
Times equal 0 --> times are too short to be properly measured! 
 
List's version time: 
Times equal 0 --> times are too short to be properly measured! 
 
-------------------------------------------------------------
SEARCHING ELEMENT (pessimistic): 
Tree's version time: 
Times equal 0 --> times are too short to be properly measured! 
 
List's version time: 
Times equal 0 --> times are too short to be properly measured! 
 
-------------------------------------------------------------
REBUILDING BOOKS: 
Tree's version time: 
Real, 	user, 	system: 
36, 	35, 	0,
 
List's version time: 
Real, 	user, 	system: 
4, 	4, 	0,
 
Finished
test_shared-O0:
CREATION OF ADDRESS BOOK:
Tree's version time: 
Times equal 0 --> times are too short to be properly measured! 
 
List's version time: 
Times equal 0 --> times are too short to be properly measured! 
 
-------------------------------------------------------------
ADDING A SINGLE ELEMENT: 
Tree's version time: 
Times equal 0 --> times are too short to be properly measured! 
 
List's version time: 
Times equal 0 --> times are too short to be properly measured! 
 
-------------------------------------------------------------
ADDING MANY ELEMENTS: 
Tree's version time: 
Real, 	user, 	system: 
49, 	48, 	0,
 
List's version time: 
Real, 	user, 	system: 
1, 	1, 	1,
 
added 55000 elements

-------------------------------------------------------------
DELETING ONE ELEMENT (optimistic): 
Tree's version time: 
Times equal 0 --> times are too short to be properly measured! 
 
List's version time: 
Times equal 0 --> times are too short to be properly measured! 
 
-------------------------------------------------------------
DELETING ONE ELEMENT (pessimistic): 
Tree's version time: 
Times equal 0 --> times are too short to be properly measured! 
 
List's version time: 
Real, 	user, 	system: 
1, 	0, 	0,
 
-------------------------------------------------------------
SEARCHING ELEMENT (optimistic): 
Tree's version time: 
Times equal 0 --> times are too short to be properly measured! 
 
List's version time: 
Times equal 0 --> times are too short to be properly measured! 
 
-------------------------------------------------------------
SEARCHING ELEMENT (pessimistic): 
Tree's version time: 
Times equal 0 --> times are too short to be properly measured! 
 
List's version time: 
Times equal 0 --> times are too short to be properly measured! 
 
-------------------------------------------------------------
REBUILDING BOOKS: 
Tree's version time: 
Real, 	user, 	system: 
36, 	36, 	0,
 
List's version time: 
Real, 	user, 	system: 
3, 	3, 	0,
 
Finished
test_shared:
CREATION OF ADDRESS BOOK:
Tree's version time: 
Times equal 0 --> times are too short to be properly measured! 
 
List's version time: 
Times equal 0 --> times are too short to be properly measured! 
 
-------------------------------------------------------------
ADDING A SINGLE ELEMENT: 
Tree's version time: 
Times equal 0 --> times are too short to be properly measured! 
 
List's version time: 
Times equal 0 --> times are too short to be properly measured! 
 
-------------------------------------------------------------
ADDING MANY ELEMENTS: 
Tree's version time: 
Real, 	user, 	system: 
48, 	47, 	0,
 
List's version time: 
Real, 	user, 	system: 
2, 	1, 	0,
 
added 55000 elements

-------------------------------------------------------------
DELETING ONE ELEMENT (optimistic): 
Tree's version time: 
Times equal 0 --> times are too short to be properly measured! 
 
List's version time: 
Times equal 0 --> times are too short to be properly measured! 
 
-------------------------------------------------------------
DELETING ONE ELEMENT (pessimistic): 
Tree's version time: 
Times equal 0 --> times are too short to be properly measured! 
 
List's version time: 
Times equal 0 --> times are too short to be properly measured! 
 
-------------------------------------------------------------
SEARCHING ELEMENT (optimistic): 
Tree's version time: 
Times equal 0 --> times are too short to be properly measured! 
 
List's version time: 
Times equal 0 --> times are too short to be properly measured! 
 
-------------------------------------------------------------
SEARCHING ELEMENT (pessimistic): 
Tree's version time: 
Times equal 0 --> times are too short to be properly measured! 
 
List's version time: 
Times equal 0 --> times are too short to be properly measured! 
 
-------------------------------------------------------------
REBUILDING BOOKS: 
Tree's version time: 
Real, 	user, 	system: 
36, 	36, 	0,
 
List's version time: 
Real, 	user, 	system: 
4, 	4, 	0,
 
Finished
test_shared_dyn-O:
CREATION OF ADDRESS BOOK:
Tree's version time: 
Times equal 0 --> times are too short to be properly measured! 
 
List's version time: 
Times equal 0 --> times are too short to be properly measured! 
 
-------------------------------------------------------------
ADDING A SINGLE ELEMENT: 
Tree's version time: 
Times equal 0 --> times are too short to be properly measured! 
 
List's version time: 
Times equal 0 --> times are too short to be properly measured! 
 
-------------------------------------------------------------
ADDING MANY ELEMENTS: 
Tree's version time: 
Real, 	user, 	system: 
45, 	44, 	0,
 
List's version time: 
Real, 	user, 	system: 
1, 	1, 	0,
 
added 55000 elements

-------------------------------------------------------------
DELETING ONE ELEMENT (optimistic): 
Tree's version time: 
Real, 	user, 	system: 
1, 	0, 	0,
 
List's version time: 
Times equal 0 --> times are too short to be properly measured! 
 
-------------------------------------------------------------
DELETING ONE ELEMENT (pessimistic): 
Tree's version time: 
Times equal 0 --> times are too short to be properly measured! 
 
List's version time: 
Times equal 0 --> times are too short to be properly measured! 
 
-------------------------------------------------------------
SEARCHING ELEMENT (optimistic): 
Tree's version time: 
Times equal 0 --> times are too short to be properly measured! 
 
List's version time: 
Times equal 0 --> times are too short to be properly measured! 
 
-------------------------------------------------------------
SEARCHING ELEMENT (pessimistic): 
Tree's version time: 
Times equal 0 --> times are too short to be properly measured! 
 
List's version time: 
Times equal 0 --> times are too short to be properly measured! 
 
-------------------------------------------------------------
REBUILDING BOOKS: 
Tree's version time: 
Real, 	user, 	system: 
44, 	44, 	0,
 
List's version time: 
Real, 	user, 	system: 
3, 	3, 	0,
 
Finished
test_shared_dyn-O1:
CREATION OF ADDRESS BOOK:
Tree's version time: 
Times equal 0 --> times are too short to be properly measured! 
 
List's version time: 
Times equal 0 --> times are too short to be properly measured! 
 
-------------------------------------------------------------
ADDING A SINGLE ELEMENT: 
Tree's version time: 
Times equal 0 --> times are too short to be properly measured! 
 
List's version time: 
Times equal 0 --> times are too short to be properly measured! 
 
-------------------------------------------------------------
ADDING MANY ELEMENTS: 
Tree's version time: 
Real, 	user, 	system: 
44, 	43, 	0,
 
List's version time: 
Real, 	user, 	system: 
1, 	1, 	1,
 
added 55000 elements

-------------------------------------------------------------
DELETING ONE ELEMENT (optimistic): 
Tree's version time: 
Times equal 0 --> times are too short to be properly measured! 
 
List's version time: 
Times equal 0 --> times are too short to be properly measured! 
 
-------------------------------------------------------------
DELETING ONE ELEMENT (pessimistic): 
Tree's version time: 
Times equal 0 --> times are too short to be properly measured! 
 
List's version time: 
Times equal 0 --> times are too short to be properly measured! 
 
-------------------------------------------------------------
SEARCHING ELEMENT (optimistic): 
Tree's version time: 
Times equal 0 --> times are too short to be properly measured! 
 
List's version time: 
Times equal 0 --> times are too short to be properly measured! 
 
-------------------------------------------------------------
SEARCHING ELEMENT (pessimistic): 
Tree's version time: 
Times equal 0 --> times are too short to be properly measured! 
 
List's version time: 
Times equal 0 --> times are too short to be properly measured! 
 
-------------------------------------------------------------
REBUILDING BOOKS: 
Tree's version time: 
Real, 	user, 	system: 
46, 	45, 	0,
 
List's version time: 
Real, 	user, 	system: 
3, 	4, 	0,
 
Finished
test_shared_dyn-O2:
CREATION OF ADDRESS BOOK:
Tree's version time: 
Times equal 0 --> times are too short to be properly measured! 
 
List's version time: 
Times equal 0 --> times are too short to be properly measured! 
 
-------------------------------------------------------------
ADDING A SINGLE ELEMENT: 
Tree's version time: 
Times equal 0 --> times are too short to be properly measured! 
 
List's version time: 
Times equal 0 --> times are too short to be properly measured! 
 
-------------------------------------------------------------
ADDING MANY ELEMENTS: 
Tree's version time: 
Real, 	user, 	system: 
50, 	49, 	0,
 
List's version time: 
Real, 	user, 	system: 
2, 	1, 	0,
 
added 55000 elements

-------------------------------------------------------------
DELETING ONE ELEMENT (optimistic): 
Tree's version time: 
Times equal 0 --> times are too short to be properly measured! 
 
List's version time: 
Times equal 0 --> times are too short to be properly measured! 
 
-------------------------------------------------------------
DELETING ONE ELEMENT (pessimistic): 
Tree's version time: 
Times equal 0 --> times are too short to be properly measured! 
 
List's version time: 
Times equal 0 --> times are too short to be properly measured! 
 
-------------------------------------------------------------
SEARCHING ELEMENT (optimistic): 
Tree's version time: 
Times equal 0 --> times are too short to be properly measured! 
 
List's version time: 
Times equal 0 --> times are too short to be properly measured! 
 
-------------------------------------------------------------
SEARCHING ELEMENT (pessimistic): 
Tree's version time: 
Times equal 0 --> times are too short to be properly measured! 
 
List's version time: 
Times equal 0 --> times are too short to be properly measured! 
 
-------------------------------------------------------------
REBUILDING BOOKS: 
Tree's version time: 
Real, 	user, 	system: 
38, 	38, 	0,
 
List's version time: 
Real, 	user, 	system: 
3, 	3, 	0,
 
Finished
test_shared_dyn-O3:
CREATION OF ADDRESS BOOK:
Tree's version time: 
Times equal 0 --> times are too short to be properly measured! 
 
List's version time: 
Times equal 0 --> times are too short to be properly measured! 
 
-------------------------------------------------------------
ADDING A SINGLE ELEMENT: 
Tree's version time: 
Times equal 0 --> times are too short to be properly measured! 
 
List's version time: 
Times equal 0 --> times are too short to be properly measured! 
 
-------------------------------------------------------------
ADDING MANY ELEMENTS: 
Tree's version time: 
Real, 	user, 	system: 
46, 	44, 	0,
 
List's version time: 
Real, 	user, 	system: 
1, 	1, 	0,
 
added 55000 elements

-------------------------------------------------------------
DELETING ONE ELEMENT (optimistic): 
Tree's version time: 
Times equal 0 --> times are too short to be properly measured! 
 
List's version time: 
Times equal 0 --> times are too short to be properly measured! 
 
-------------------------------------------------------------
DELETING ONE ELEMENT (pessimistic): 
Tree's version time: 
Times equal 0 --> times are too short to be properly measured! 
 
List's version time: 
Times equal 0 --> times are too short to be properly measured! 
 
-------------------------------------------------------------
SEARCHING ELEMENT (optimistic): 
Tree's version time: 
Times equal 0 --> times are too short to be properly measured! 
 
List's version time: 
Times equal 0 --> times are too short to be properly measured! 
 
-------------------------------------------------------------
SEARCHING ELEMENT (pessimistic): 
Tree's version time: 
Times equal 0 --> times are too short to be properly measured! 
 
List's version time: 
Times equal 0 --> times are too short to be properly measured! 
 
-------------------------------------------------------------
REBUILDING BOOKS: 
Tree's version time: 
Real, 	user, 	system: 
37, 	37, 	0,
 
List's version time: 
Real, 	user, 	system: 
3, 	3, 	0,
 
Finished
test_shared_dyn-O0:
CREATION OF ADDRESS BOOK:
Tree's version time: 
Times equal 0 --> times are too short to be properly measured! 
 
List's version time: 
Times equal 0 --> times are too short to be properly measured! 
 
-------------------------------------------------------------
ADDING A SINGLE ELEMENT: 
Tree's version time: 
Times equal 0 --> times are too short to be properly measured! 
 
List's version time: 
Times equal 0 --> times are too short to be properly measured! 
 
-------------------------------------------------------------
ADDING MANY ELEMENTS: 
Tree's version time: 
Real, 	user, 	system: 
45, 	45, 	0,
 
List's version time: 
Real, 	user, 	system: 
2, 	1, 	0,
 
added 55000 elements

-------------------------------------------------------------
DELETING ONE ELEMENT (optimistic): 
Tree's version time: 
Times equal 0 --> times are too short to be properly measured! 
 
List's version time: 
Times equal 0 --> times are too short to be properly measured! 
 
-------------------------------------------------------------
DELETING ONE ELEMENT (pessimistic): 
Tree's version time: 
Times equal 0 --> times are too short to be properly measured! 
 
List's version time: 
Times equal 0 --> times are too short to be properly measured! 
 
-------------------------------------------------------------
SEARCHING ELEMENT (optimistic): 
Tree's version time: 
Times equal 0 --> times are too short to be properly measured! 
 
List's version time: 
Times equal 0 --> times are too short to be properly measured! 
 
-------------------------------------------------------------
SEARCHING ELEMENT (pessimistic): 
Tree's version time: 
Times equal 0 --> times are too short to be properly measured! 
 
List's version time: 
Times equal 0 --> times are too short to be properly measured! 
 
-------------------------------------------------------------
REBUILDING BOOKS: 
Tree's version time: 
Real, 	user, 	system: 
39, 	39, 	0,
 
List's version time: 
Real, 	user, 	system: 
3, 	3, 	0,
 
Finished
test_shared_dyn-Os:
CREATION OF ADDRESS BOOK:
Tree's version time: 
Times equal 0 --> times are too short to be properly measured! 
 
List's version time: 
Times equal 0 --> times are too short to be properly measured! 
 
-------------------------------------------------------------
ADDING A SINGLE ELEMENT: 
Tree's version time: 
Times equal 0 --> times are too short to be properly measured! 
 
List's version time: 
Times equal 0 --> times are too short to be properly measured! 
 
-------------------------------------------------------------
ADDING MANY ELEMENTS: 
Tree's version time: 
Real, 	user, 	system: 
47, 	47, 	0,
 
List's version time: 
Real, 	user, 	system: 
2, 	1, 	0,
 
added 55000 elements

-------------------------------------------------------------
DELETING ONE ELEMENT (optimistic): 
Tree's version time: 
Times equal 0 --> times are too short to be properly measured! 
 
List's version time: 
Times equal 0 --> times are too short to be properly measured! 
 
-------------------------------------------------------------
DELETING ONE ELEMENT (pessimistic): 
Tree's version time: 
Times equal 0 --> times are too short to be properly measured! 
 
List's version time: 
Times equal 0 --> times are too short to be properly measured! 
 
-------------------------------------------------------------
SEARCHING ELEMENT (optimistic): 
Tree's version time: 
Times equal 0 --> times are too short to be properly measured! 
 
List's version time: 
Times equal 0 --> times are too short to be properly measured! 
 
-------------------------------------------------------------
SEARCHING ELEMENT (pessimistic): 
Tree's version time: 
Times equal 0 --> times are too short to be properly measured! 
 
List's version time: 
Times equal 0 --> times are too short to be properly measured! 
 
-------------------------------------------------------------
REBUILDING BOOKS: 
Tree's version time: 
Real, 	user, 	system: 
37, 	37, 	0,
 
List's version time: 
Real, 	user, 	system: 
3, 	3, 	0,
 
Finished
